{ "height":19,
 "layers":[
        {
         "data":[3, 3, 3, 3, 3, 3, 3, 3, 3, 3, 3, 3, 3, 3, 3, 3, 3, 3, 3, 3, 3, 3, 3, 3, 3, 3, 3, 3, 3, 3, 3, 3, 3, 3, 3, 3, 3, 3, 3, 3, 3, 3, 3, 3, 3, 3, 3, 3, 3, 2, 3, 3, 3, 3, 3, 3, 3, 3, 3, 3, 3, 3, 3, 3, 3, 3, 3, 3, 3, 3, 3, 3, 3, 3, 3, 3, 3, 3, 3, 3, 3, 3, 3, 3, 3, 3, 3, 3, 3, 3, 3, 3, 3, 3, 3, 3, 3, 3, 3, 3, 3, 3, 3, 3, 3, 3, 3, 3, 3, 3, 3, 3, 3, 3, 3, 3, 3, 3, 3, 3, 3, 3, 3, 3, 3, 3, 3, 3, 3, 3, 3, 3, 3, 3, 3, 3, 3, 3, 3, 3, 3, 3, 3, 3, 3, 3, 3, 3, 3, 3, 3, 3, 3, 3, 3, 3, 3, 3, 3, 3, 3, 3, 3, 3, 3, 3, 3, 3, 3, 3, 3, 3, 3, 3, 3, 3, 3, 3, 3, 3, 3, 3, 3, 3, 3, 3, 3, 3, 3, 3, 3, 3, 3, 3, 3, 3, 3, 3, 3, 3, 3, 3, 3, 3, 3, 3, 3, 3, 3, 3, 3, 3, 3, 3, 3, 3, 3, 3, 3, 3, 3, 3, 3, 3, 3, 3, 3, 3, 3, 3, 3, 3, 3, 3, 3, 3, 3, 3, 3, 3, 3, 3, 3, 3, 3, 3, 3, 3, 3, 3, 3, 3, 3, 3, 3, 3, 3, 3, 3, 3, 3, 3, 3, 3, 3, 3, 3, 3, 3, 3, 3, 3, 3, 3, 3, 3, 3, 3, 3, 3, 3, 3, 3, 3, 3, 3, 3, 3, 3, 3, 3, 3, 3, 3, 3, 3, 3, 3, 3, 3, 3, 3, 3, 3, 3, 3, 3, 3, 3, 3, 3, 3, 3, 3, 3, 3, 3, 3, 3, 3, 3, 3, 3, 3, 3, 3, 3, 3, 3, 3, 3, 3, 3, 3, 3, 3, 3, 3, 3, 3, 3, 3, 3, 3, 3, 3, 3, 3, 3, 3, 3, 3, 3, 3, 3, 3, 3, 3, 3, 3, 3, 3, 3, 3, 3, 3, 3, 3, 3, 3, 3, 3, 3, 3, 3, 3, 3, 3, 3, 3, 3, 3, 3, 3, 3, 3, 3, 3, 3, 3, 3, 3, 3, 3, 3, 3, 3, 3, 3, 3, 3, 3, 3, 3, 3, 3, 3, 3, 3, 3, 3, 3, 3, 3, 3, 3, 3, 3, 3, 3, 3, 3, 3, 3, 3, 3, 3, 3, 3, 3, 3, 3, 3, 3, 3, 3, 3, 3, 3, 3, 3, 3, 3, 3, 3, 3, 3, 3, 3, 3, 3, 3, 3, 3, 3, 3, 3, 3, 3, 3, 3, 3, 3, 3, 3, 3, 3, 3, 3, 3, 3, 3, 3, 3, 3],
         "height":19,
         "name":"floor",
         "opacity":1,
         "type":"tilelayer",
         "visible":true,
         "width":25,
         "x":0,
         "y":0
        }, 
        {
         "data":[1, 1, 1, 1, 1, 1, 1, 1, 1, 1, 1, 1, 1, 1, 1, 1, 1, 1, 1, 1, 1, 1, 1, 1, 1, 1, 0, 0, 0, 0, 0, 0, 0, 0, 0, 0, 0, 0, 0, 0, 0, 0, 0, 0, 0, 0, 1, 0, 0, 0, 1, 0, 0, 0, 0, 0, 0, 0, 0, 0, 0, 0, 0, 0, 0, 0, 0, 0, 0, 0, 0, 1, 0, 0, 1, 1, 0, 0, 0, 0, 0, 0, 0, 0, 0, 0, 0, 0, 0, 0, 0, 0, 0, 0, 0, 0, 1, 0, 0, 1, 1, 0, 0, 1, 1, 1, 1, 1, 1, 1, 1, 1, 1, 1, 1, 1, 1, 1, 0, 0, 0, 1, 0, 0, 1, 1, 0, 0, 1, 0, 0, 0, 0, 0, 0, 0, 0, 0, 0, 0, 0, 0, 0, 0, 0, 0, 1, 0, 0, 1, 1, 0, 0, 1, 0, 0, 0, 0, 0, 0, 0, 0, 0, 0, 0, 0, 0, 0, 0, 0, 0, 1, 0, 0, 1, 1, 0, 0, 1, 0, 0, 0, 0, 0, 0, 0, 0, 0, 0, 0, 0, 0, 0, 0, 0, 0, 1, 0, 0, 1, 1, 0, 0, 1, 0, 0, 0, 0, 0, 0, 0, 0, 0, 0, 0, 0, 0, 0, 0, 0, 0, 1, 0, 0, 1, 1, 0, 0, 1, 0, 0, 0, 0, 0, 0, 0, 0, 0, 0, 0, 0, 0, 0, 0, 0, 0, 1, 0, 0, 1, 1, 0, 0, 1, 0, 0, 0, 0, 0, 0, 0, 0, 0, 0, 0, 0, 0, 0, 0, 0, 0, 1, 0, 0, 1, 1, 0, 0, 1, 0, 0, 0, 0, 0, 0, 0, 0, 0, 0, 0, 0, 0, 0, 0, 0, 0, 1, 0, 0, 1, 1, 0, 0, 1, 0, 0, 0, 0, 0, 0, 0, 0, 0, 0, 0, 0, 0, 0, 0, 0, 0, 1, 0, 0, 1, 1, 0, 0, 1, 0, 0, 0, 0, 0, 0, 0, 0, 0, 0, 0, 0, 0, 0, 0, 0, 0, 1, 0, 0, 1, 1, 0, 0, 1, 0, 0, 0, 1, 1, 1, 1, 1, 1, 1, 1, 1, 1, 1, 1, 1, 1, 1, 0, 0, 1, 1, 0, 0, 1, 0, 0, 0, 0, 0, 0, 0, 0, 0, 0, 0, 0, 0, 0, 0, 0, 0, 0, 0, 0, 1, 1, 0, 0, 1, 0, 0, 0, 0, 0, 0, 0, 0, 0, 0, 0, 0, 0, 0, 0, 0, 0, 0, 0, 0, 1, 0, 0, 0, 1, 0, 0, 0, 0, 0, 0, 0, 0, 0, 0, 0, 0, 0, 0, 0, 0, 0, 0, 0, 0, 1, 1, 1, 1, 1, 1, 1, 1, 1, 1, 1, 1, 1, 1, 1, 1, 1, 1, 1, 1, 1, 1, 1, 1, 1, 1],
         "height":19,
         "name":"collision",
         "opacity":1,
         "type":"tilelayer",
         "visible":true,
         "width":25,
         "x":0,
         "y":0
        }, 
        {
         "draworder":"topdown",
         "height":19,
         "name":"objects",
         "objects":[
                {
                 "height":32,
                 "id":1,
                 "name":"player",
                 "properties":
                    {

                    },
                 "rotation":0,
                 "type":"player",
                 "visible":true,
                 "width":32,
                 "x":0,
                 "y":544
                }, 
                {
                 "height":32,
                 "id":3,
                 "name":"4",
                 "properties":
                    {
                     "direction":"2",
                     "objective":"14"
                    },
                 "rotation":0,
                 "type":"enemy",
                 "visible":true,
                 "width":32,
                 "x":544,
                 "y":32
                }, 
                {
                 "height":32,
                 "id":5,
                 "name":"1",
                 "properties":
                    {
                     "direction":"1",
                     "objective":"14"
                    },
                 "rotation":0,
                 "type":"enemy",
                 "visible":true,
                 "width":32,
                 "x":96,
                 "y":96
                }, 
                {
                 "height":32,
                 "id":6,
                 "name":"14",
                 "properties":
                    {
                     "direction":"2",
                     "objective":"14"
                    },
                 "rotation":0,
                 "type":"enemy",
                 "visible":true,
                 "width":32,
                 "x":672,
                 "y":480
                }, 
                {
                 "height":32,
                 "id":8,
                 "name":"11",
                 "properties":
                    {
                     "direction":"1",
                     "objective":"14"
                    },
                 "rotation":0,
                 "type":"enemy",
                 "visible":true,
                 "width":32,
                 "x":224,
                 "y":544
                }, 
                {
                 "height":32,
                 "id":9,
                 "name":"10",
                 "properties":
                    {
                     "direction":"4",
                     "objective":"7"
                    },
                 "rotation":0,
                 "type":"enemy",
                 "visible":true,
                 "width":32,
                 "x":224,
                 "y":384
                }, 
                {
                 "height":32,
                 "id":10,
                 "name":"5",
                 "properties":
                    {
                     "direction":"3",
                     "objective":"7"
                    },
                 "rotation":0,
                 "type":"enemy",
                 "visible":true,
                 "width":32,
                 "x":544,
                 "y":160
                }, 
                {
                 "height":32,
                 "id":11,
                 "name":"6",
                 "properties":
                    {
                     "direction":"4",
                     "objective":"7"
                    },
                 "rotation":0,
                 "type":"enemy",
                 "visible":true,
                 "width":32,
                 "x":480,
                 "y":384
                }, 
                {
                 "height":32,
                 "id":12,
                 "name":"9",
                 "properties":
                    {
                     "direction":"3",
                     "objective":"7"
                    },
                 "rotation":0,
                 "type":"enemy",
                 "visible":true,
                 "width":32,
                 "x":288,
                 "y":160
                }, 
                {
                 "height":32,
                 "id":13,
                 "name":"8",
                 "properties":
                    {
                     "direction":"4",
                     "objective":"7"
                    },
                 "rotation":0,
                 "type":"enemy",
                 "visible":true,
                 "width":32,
                 "x":352,
                 "y":384
                }, 
                {
                 "height":32,
                 "id":14,
                 "name":"7",
                 "properties":
                    {
                     "direction":"3",
                     "objective":"7"
                    },
                 "rotation":0,
                 "type":"enemy",
                 "visible":true,
                 "width":32,
                 "x":416,
                 "y":160
                }, 
                {
                 "height":32,
                 "id":17,
                 "name":"",
                 "properties":
                    {

                    },
                 "rotation":0,
                 "type":"finish",
                 "visible":true,
                 "width":32,
                 "x":768,
                 "y":32
                }],
         "opacity":1,
         "type":"objectgroup",
         "visible":true,
         "width":25,
         "x":0,
         "y":0
        }],
 "nextobjectid":19,
 "orientation":"orthogonal",
 "properties":
    {

    },
 "renderorder":"right-down",
 "tileheight":32,
 "tilesets":[
        {
         "firstgid":1,
         "image":"tiles.png",
         "imageheight":64,
         "imagewidth":64,
         "margin":0,
         "name":"tiles",
         "properties":
            {

            },
         "spacing":0,
         "tilecount":4,
         "tileheight":32,
         "tilewidth":32
        }],
 "tilewidth":32,
 "version":1,
 "width":25
}